<svg xmlns="http://www.w3.org/2000/svg" width="40" height="40">
    <path fill="#FFF" fill-rule="evenodd" d="M19.999.004C8.974.004.004 8.974.004 19.999c0 11.024 8.97 19.995 19.995 19.995s19.995-8.971 19.995-19.995c0-11.025-8.97-19.995-19.995-19.995zm8.92 15.418c.008.199.013.399.013.598 0 6.082-4.628 13.093-13.095 13.093a13.02 13.02 0 0 1-7.054-2.067c.36.042.727.064 1.098.064 2.157 0 4.14-.736 5.715-1.97a4.605 4.605 0 0 1-4.298-3.196 4.617 4.617 0 0 0 2.077-.078 4.605 4.605 0 0 1-3.691-4.512l.001-.058c.62.344 1.329.552 2.084.575a4.598 4.598 0 0 1-2.047-3.829c0-.845.227-1.636.623-2.316a13.063 13.063 0 0 0 9.485 4.81 4.603 4.603 0 0 1 7.842-4.198 9.195 9.195 0 0 0 2.923-1.117 4.615 4.615 0 0 1-2.024 2.546 9.148 9.148 0 0 0 2.643-.724 9.304 9.304 0 0 1-2.295 2.379z"/>
</svg>
