<svg xmlns="http://www.w3.org/2000/svg" width="40" height="40">
    <path fill="#FFF" fill-rule="evenodd" d="M19.999.004C8.974.004.004 8.974.004 19.999c0 11.024 8.97 19.995 19.995 19.995s19.994-8.971 19.994-19.995C39.993 8.974 31.024.004 19.999.004zm4.972 20.699h-3.252v11.595h-4.821V20.703h-2.291v-4.098h2.291v-2.65c0-1.899.902-4.865 4.865-4.865l3.57.013v3.978h-2.592c-.423 0-1.022.211-1.022 1.117v2.408h3.673l-.421 4.097z"/>
</svg>
