<svg xmlns="http://www.w3.org/2000/svg" width="15" height="18">
    <path fill="#FFF" fill-rule="evenodd" d="M14.824 15.983a.496.496 0 0 1-.191.235c-.109.071-2.734 1.781-7.128 1.781-4.393 0-7.018-1.706-7.128-1.781a.477.477 0 0 1-.19-.235c-.193-.5-.19-1.494-.186-1.689v-.011c.004-.03.004-.059.004-.093.021-.734.069-2.46 1.654-3.015a.505.505 0 0 1 .036-.012c1.655-.428 3.017-1.397 3.031-1.408a.486.486 0 0 1 .687.123.508.508 0 0 1-.121.7c-.062.041-1.515 1.077-3.334 1.555-.851.309-.945 1.237-.971 2.087 0 .033-.004.063-.004.093-.007.336.018.854.077 1.152.595.343 2.929 1.532 6.441 1.532 3.528 0 5.847-1.185 6.439-1.528.058-.298.08-.817.076-1.152-.003-.03-.003-.06-.003-.093-.026-.85-.121-1.779-.972-2.088-1.818-.477-3.271-1.509-3.334-1.554a.51.51 0 0 1-.12-.701.486.486 0 0 1 .686-.123c.015.011 1.384.981 3.031 1.409l.037.012c1.585.551 1.632 2.277 1.654 3.015 0 .033.004.063.004.093v.011c.003.194.007 1.189-.175 1.685zM7.553 9.699H7.436C6.366 9.68 5.5 9.296 4.865 8.562 3.459 6.944 3.693 4.171 3.719 3.906 3.81 1.905 4.745.954 5.511.51 6.275.067 7.071 0 7.476 0h.062c.738.014 1.399.194 1.965.526.759.443 1.679 1.393 1.771 3.38.026.265.259 3.038-1.147 4.656-.639.734-1.504 1.118-2.574 1.137zm2.742-5.7c-.004-.007-.004-.018-.004-.03-.113-2.527-1.789-2.937-2.775-2.959h-.044c-.796 0-2.655.287-2.775 2.959 0 .008-.003.019-.003.03-.004.023-.253 2.569.905 3.896.456.529 1.074.79 1.877.797h.037c.807-.007 1.42-.268 1.88-.797 1.161-1.335.906-3.869.902-3.896z"/>
</svg>
