<svg xmlns="http://www.w3.org/2000/svg" width="29" height="26">
    <path fill="#eecc49" fill-rule="evenodd" d="M15.769 26c-4.879 0-9.165-2.601-11.46-6.499a.827.827 0 0 1 .31-1.141.858.858 0 0 1 1.161.305c1.994 3.387 5.723 5.665 9.989 5.665 6.359 0 11.532-5.082 11.532-11.33S22.128 1.67 15.769 1.67c-4.263 0-7.993 2.275-9.989 5.665a.858.858 0 0 1-1.161.305.827.827 0 0 1-.31-1.141C6.603 2.602 10.889 0 15.769 0 23.082 0 29 5.815 29 13c0 7.186-5.918 13-13.231 13zm-.021-15.149c0-.676.777-1.072 1.339-.683l3.103 2.15a.827.827 0 0 1 0 1.364l-3.103 2.15c-.558.386-1.339-.003-1.339-.683v-1.314H.85A.842.842 0 0 1 0 13c0-.461.38-.835.85-.835h14.898v-1.314z"/>
</svg>
