<svg xmlns="http://www.w3.org/2000/svg" width="636" height="91">
    <path fill="#F7F6F6" fill-rule="evenodd" d="M611.162 16.58v72.84h-17.76V16.58h-24.36V.62h66.6v15.96h-24.48zM506.403 30.86v58.56h-17.88V.62h14.28l37.2 58.56V.62h17.76v88.8h-14.28l-37.08-58.56zm-86.038 55.32c-4.32-2.559-6.48-7.8-6.48-15.72V20.9c0-7.2 1.98-12.379 5.94-15.54 3.96-3.159 8.739-4.74 14.34-4.74 12.24 0 25.038.521 38.4 1.56v14.88h-33.12c-5.202 0-7.8 2.441-7.8 7.32v12.84l35.16.96v14.04l-35.16.96v12.24c0 5.28 2.478 7.92 7.44 7.92h33.48v14.88c-10.641 1.2-23.001 1.8-37.08 1.8-5.76 0-10.8-1.279-15.12-3.84zm-37.68 3.24l-14.28-32.88c-3.84 0-8.64-.079-14.4-.24v33.12h-17.76V.62h36.72c7.839 0 14.019 2.1 18.54 6.3 4.519 4.2 6.78 11.58 6.78 22.14 0 7.44-1.26 12.96-3.78 16.56-2.52 3.6-5.94 6.321-10.26 8.16l16.56 35.64h-18.12zm-4.92-70.14c-1.841-1.8-4.481-2.7-7.92-2.7h-15.84v25.68h15.84c3.439 0 6.079-.979 7.92-2.94 1.839-1.959 2.76-5.379 2.76-10.26 0-4.719-.921-7.98-2.76-9.78zm-109.078 66.9c-4.32-2.559-6.48-7.8-6.48-15.72V20.9c0-7.2 1.98-12.379 5.94-15.54 3.96-3.159 8.739-4.74 14.34-4.74 12.24 0 25.038.521 38.4 1.56v14.88h-33.12c-5.202 0-7.8 2.441-7.8 7.32v12.84l35.16.96v14.04l-35.16.96v12.24c0 5.28 2.478 7.92 7.44 7.92h33.48v14.88c-10.641 1.2-23.001 1.8-37.08 1.8-5.76 0-10.8-1.279-15.12-3.84zm-57.96-67.14c-1.281 1.32-1.92 3.021-1.92 5.1v15.24l35.16.96v14.04l-35.16.96v34.08h-17.76V20.9c0-7.2 1.98-12.379 5.94-15.54 3.96-3.159 8.739-4.74 14.34-4.74 15.919 0 28.719.521 38.4 1.56v14.88h-33.48c-2.4 0-4.241.66-5.52 1.98zm-71.16 0c-1.281 1.32-1.92 3.021-1.92 5.1v15.24l35.16.96v14.04l-35.16.96v34.08h-17.76V20.9c0-7.2 1.98-12.379 5.94-15.54 3.96-3.159 8.739-4.74 14.34-4.74 15.919 0 28.719.521 38.4 1.56v14.88h-33.48c-2.4 0-4.241.66-5.52 1.98zM84.369.62h17.76v88.8h-17.76V.62zM37.93 89.42H.37V.62h37.56c11.358 0 19.359 3.84 24 11.52 4.638 7.68 6.96 18.641 6.96 32.88 0 14.961-2.562 26.1-7.68 33.42-5.121 7.32-12.882 10.98-23.28 10.98zm11.58-61.86c-1.08-4.119-2.7-6.979-4.86-8.58-2.16-1.599-5.001-2.4-8.52-2.4h-18v56.88h18c5.358 0 9.198-2.34 11.52-7.02 2.319-4.68 3.48-11.82 3.48-21.42 0-7.519-.54-13.339-1.62-17.46z" opacity=".4"/>
</svg>
